{
	"agcgw_all":{
		"CN":"connect-drcn.hispace.hicloud.com",
		"CN_back":"connect-drcn.dbankcloud.cn",
		"DE":"connect-dre.hispace.hicloud.com",
		"DE_back":"connect-dre.dbankcloud.cn",
		"RU":"connect-drru.hispace.hicloud.com",
		"RU_back":"connect-drru.dbankcloud.cn",
		"SG":"connect-dra.hispace.hicloud.com",
		"SG_back":"connect-dra.dbankcloud.cn"
	},
	"client":{
		"cp_id":"2640971000021722804",
		"product_id":"736430079245941151",
		"client_id":"694931242189077312",
		"client_secret":"BF73C2CB5013A21354A0AE79BE5D93DF8FA5CFC42E0B42AAAD465FFDE3856F4E",
		"project_id":"736430079245941151",
		"app_id":"104633875",
		"api_key":"CwEAAAAAGqLmDN7fNgQtMrgd8v5aJ6rOGqM9FPf4CnI+UP1IdFZ4gdIhnOfiI+jJkewyJyRDf/UUgJBVeinNqMPaiqwWVHqUJJs=",
		"package_name":"cn.swiftpass.wallet.tiqmo"
	},
	"oauth_client":{
		"client_id":"104633875",
		"client_type":1
	},
	"app_info":{
		"app_id":"104633875",
		"package_name":"cn.swiftpass.wallet.tiqmo"
	},
	"configuration_version":"3.0",
	"appInfos":[
		{
			"package_name":"cn.swiftpass.wallet.tiqmo",
			"client":{
				"app_id":"104633875"
			},
			"app_info":{
				"package_name":"cn.swiftpass.wallet.tiqmo",
				"app_id":"104633875"
			},
			"oauth_client":{
				"client_type":1,
				"client_id":"104633875"
			}
		}
	]
}